[
    {
        "input_file_name": "GCF_010120755.1_ASM1012075v1_genomic",
        "gene_symbol": "aacA-ENT1",
        "gene_name": "aminoglycoside 6'-N-acetyltransferase",
        "reference_database_id": "ncbi",
        "reference_database_version": 1,
        "reference_accession": "NG_052371.1",
        "analysis_software_name": "abricate",
        "analysis_software_version": 1,
        "sequence_identity": 100,
        "input_sequence_id": "NZ_CP039729.1",
        "input_protein_start": "",
        "input_protein_stop": "",
        "input_gene_start": 2163439,
        "input_gene_stop": 2163987,
        "reference_protein_start": "",
        "reference_protein_stop": "",
        "reference_gene_start": "",
        "reference_gene_stop": "",
        "strand_orientation": "-",
        "coverage_depth": "",
        "coverage_percentage": 100,
        "coverage_ratio": "",
        "reference_gene_length": "",
        "reference_protein_length": "",
        "input_gene_length": "",
        "input_protein_length": "",
        "drug_class": "AMINOGLYCOSIDE",
        "antimicrobial_agent": "",
        "resistance_mechanism": ""
    },
    {
        "input_file_name": "ResFinder_results_tab.txt",
        "gene_symbol": "blaNDM-1",
        "gene_name": "blaNDM-1",
        "reference_database_id": "resfinder",
        "reference_database_version": 1,
        "reference_accession": "FN396876",
        "analysis_software_name": "resfinder 4",
        "analysis_software_version": 1,
        "sequence_identity": 100,
        "input_sequence_id": "NODE_14_length_98505_cov_19.634799",
        "input_protein_start": "",
        "input_protein_stop": "",
        "input_gene_start": 11835,
        "input_gene_stop": 12647,
        "reference_protein_start": "",
        "reference_protein_stop": "",
        "reference_gene_start": "",
        "reference_gene_stop": "",
        "strand_orientation": "+",
        "coverage_depth": "",
        "coverage_percentage": 100,
        "coverage_ratio": "",
        "reference_gene_length": 813,
        "reference_protein_length": "",
        "input_gene_length": "",
        "input_protein_length": "",
        "drug_class": "Beta-lactam resistance",
        "antimicrobial_agent": "",
        "resistance_mechanism": ""
    },
    {
        "input_file_name": "report.tsv",
        "gene_symbol": "OXA_1",
        "gene_name": "OXA_1.3001396.JN420336.1.1399_2230.4668",
        "reference_database_id": "card",
        "reference_database_version": 1,
        "reference_accession": "OXA_1.3001396.JN420336.1.1399_2230.4668",
        "analysis_software_name": "ariba",
        "analysis_software_version": 1,
        "sequence_identity": 100,
        "input_sequence_id": "OXA_-_3.l15.c4.ctg.1",
        "input_protein_start": "",
        "input_protein_stop": "",
        "input_gene_start": "",
        "input_gene_stop": "",
        "reference_protein_start": "",
        "reference_protein_stop": "",
        "reference_gene_start": "",
        "reference_gene_stop": "",
        "strand_orientation": "",
        "coverage_depth": 22.5,
        "coverage_percentage": "",
        "coverage_ratio": "",
        "reference_gene_length": 831,
        "reference_protein_length": "",
        "input_gene_length": "",
        "input_protein_length": "",
        "drug_class": "",
        "antimicrobial_agent": "",
        "resistance_mechanism": ""
    },
    {
        "input_file_name": "report_nucleotide.tsv",
        "gene_symbol": "msr(C)",
        "gene_name": "ABC-F type ribosomal protection protein Msr(C)",
        "reference_database_id": "NCBI Reference Gene Database",
        "reference_database_version": 1,
        "reference_accession": "WP_063854349.1",
        "analysis_software_name": "amrfinderplus",
        "analysis_software_version": 1,
        "sequence_identity": 98.78,
        "input_sequence_id": "NZ_CP039729.1",
        "input_protein_start": "",
        "input_protein_stop": "",
        "input_gene_start": 2564041,
        "input_gene_stop": 2565516,
        "reference_protein_start": "",
        "reference_protein_stop": "",
        "reference_gene_start": "",
        "reference_gene_stop": "",
        "strand_orientation": "-",
        "coverage_depth": "",
        "coverage_percentage": 100,
        "coverage_ratio": "",
        "reference_gene_length": "",
        "reference_protein_length": 492,
        "input_gene_length": "",
        "input_protein_length": 492,
        "drug_class": "MACROLIDE",
        "antimicrobial_agent": "MACROLIDE",
        "resistance_mechanism": ""
    },
    {
        "input_file_name": "report_protein.tsv",
        "gene_symbol": "vanM",
        "gene_name": "D-alanine--(R)-lactate ligase VanM",
        "reference_database_id": "NCBI Reference Gene Database",
        "reference_database_version": 1,
        "reference_accession": "WP_063856712.1",
        "analysis_software_name": "amrfinderplus",
        "analysis_software_version": 1,
        "sequence_identity": "100.0",
        "input_sequence_id": "WP_063856712.1",
        "input_protein_start": "",
        "input_protein_stop": "",
        "input_gene_start": "",
        "input_gene_stop": "",
        "reference_protein_start": "",
        "reference_protein_stop": "",
        "reference_gene_start": "",
        "reference_gene_stop": "",
        "strand_orientation": "",
        "coverage_depth": "",
        "coverage_percentage": "100.0",
        "coverage_ratio": "",
        "reference_gene_length": "",
        "reference_protein_length": "343",
        "input_gene_length": "",
        "input_protein_length": 343,
        "drug_class": "GLYCOPEPTIDE",
        "antimicrobial_agent": "VANCOMYCIN",
        "resistance_mechanism": ""
    },
    {
        "input_file_name": "rgi.txt",
        "gene_symbol": "SHV-11",
        "gene_name": "SHV beta-lactamase",
        "reference_database_id": "CARD",
        "reference_database_version": 1,
        "reference_accession": 3001070,
        "analysis_software_name": "rgi",
        "analysis_software_version": 1,
        "sequence_identity": 100,
        "input_sequence_id": "NODE_11_length_157792_cov_39.2115_132",
        "input_protein_start": "",
        "input_protein_stop": "",
        "input_gene_start": 128890,
        "input_gene_stop": 129750,
        "reference_protein_start": "",
        "reference_protein_stop": "",
        "reference_gene_start": "",
        "reference_gene_stop": "",
        "strand_orientation": "+",
        "coverage_depth": "",
        "coverage_percentage": 100,
        "coverage_ratio": "",
        "reference_gene_length": "",
        "reference_protein_length": "",
        "input_gene_length": "",
        "input_protein_length": "",
        "drug_class": "carbapenem; cephalosporin; penam",
        "antimicrobial_agent": "",
        "resistance_mechanism": "antibiotic inactivation"
    }
]